<?xml version="1.0" encoding="utf-8"?>
<!-- Generator: Adobe Illustrator 16.0.0, SVG Export Plug-In . SVG Version: 6.00 Build 0)  -->
<!DOCTYPE svg PUBLIC "-//W3C//DTD SVG 1.1//EN" "http://www.w3.org/Graphics/SVG/1.1/DTD/svg11.dtd">
<svg version="1.1" id="logo_x5F_white_xA0_Image_1_" opacity="0.4"
	 xmlns="http://www.w3.org/2000/svg" xmlns:xlink="http://www.w3.org/1999/xlink" x="0px" y="0px" width="104px" height="77px"
	 viewBox="0 0 104 77" enable-background="new 0 0 104 77" xml:space="preserve">
<image overflow="visible" width="102" height="57" id="logo_x5F_white_xA0_Image" xlink:href="7D9719A8.png"  transform="matrix(1 0 0 1 1 10)">
</image>
</svg>
