<svg xmlns="http://www.w3.org/2000/svg" viewBox="0 0 20 20" width="20" height="20">
	<style>
		tspan { white-space:pre }
		.shp0 { fill: none;stroke: #000000;stroke-linecap:round;stroke-linejoin:round;stroke-width: 2 } 
	</style>
	<g id="download">
		<path id="Shape" class="shp0" d="M1,13v4c0,1.1 0.9,2 2,2h14c1.1,0 2,-0.9 2,-2v-4" />
		<path id="Shape" class="shp0" d="M5,8l5,5l5,-5" />
		<path id="Shape" class="shp0" d="M10,1v12" />
	</g>
</svg>